Tidyverse - data wrangling
…
# This would fail... 
los_all %>% group_by(protein) %>% 
    summarise(corres = cor.test(logsum_dia, logsum_srm))

One way to address this issue is to pass on arbitrary operations to dplyr::do(). Note that this approach is slightly out of date, and you may find the map functions to be discussed in the next section are more intuitive and easier to work with list-columns.

group_by() + do()

Here the operation head() returns multiple rows:

twin_dia2 %>% 
    group_by(protein) %>% 
    do(head(., 2))

## Source: local data frame [66 x 13]
## Groups: protein [33]
## 
##        protein                           feature   run  pair zygosity
##          <chr>                             <chr> <chr> <int>   <fctr>
## 1  A1AG_BOVINE               AIQAAFFYLEPR_2_y3_1  R001     1       MZ
## 2  A1AG_BOVINE               AIQAAFFYLEPR_2_y3_1  R002     1       MZ
## 3         A2MG SSSNEEVM(UniMod_35)FLTVQVK_2_y4_1  R001     1       MZ
## 4         A2MG SSSNEEVM(UniMod_35)FLTVQVK_2_y4_1  R002     1       MZ
## 5         AACT                  EIGELYLPK_2_y5_1  R001     1       MZ
## 6         AACT                  EIGELYLPK_2_y5_1  R002     1       MZ
## 7         APOA             NPDAVAAPYCYTR_2_y10_1  R001     1       MZ
## 8         APOA             NPDAVAAPYCYTR_2_y10_1  R002     1       MZ
## 9        APOA1                DLATVYVDVLK_2_y4_1  R001     1       MZ
## 10       APOA1                DLATVYVDVLK_2_y4_1  R002     1       MZ
## # ... with 56 more rows, and 8 more variables: subject <int>, visit <int>,
## #   intensity_h <dbl>, intensity_l <dbl>, log2inty_h <dbl>,
## #   log2inty_l <dbl>, log2inty_med <dbl>, log2inty_adj <dbl>
…
